^E:\C++\图形学\CSPH\CSPH\SHOW.CPP
C:\WINDOWS\GLOBALIZATION\SORTING\SORTDEFAULT.NLS
D:\VS\VC\BIN\2052\CLUI.DLL
C:\WINDOWS\SYSTEM32\TZRES.DLL
D:\VS\VC\INCLUDE\CSTDIO
D:\VS\VC\INCLUDE\YVALS.H
D:\VS\VC\INCLUDE\XKEYCHECK.H
D:\VS\VC\INCLUDE\CRTDEFS.H
D:\VS\VC\INCLUDE\VCRUNTIME.H
D:\VS\VC\INCLUDE\SAL.H
D:\VS\VC\INCLUDE\CONCURRENCYSAL.H
D:\VS\VC\INCLUDE\VADEFS.H
C:\PROGRAM FILES (X86)\WINDOWS KITS\10\INCLUDE\10.0.10240.0\UCRT\CORECRT.H
D:\VS\VC\INCLUDE\USE_ANSI.H
C:\PROGRAM FILES (X86)\WINDOWS KITS\10\INCLUDE\10.0.10240.0\UCRT\STDIO.H
C:\PROGRAM FILES (X86)\WINDOWS KITS\10\INCLUDE\10.0.10240.0\UCRT\CORECRT_WSTDIO.H
C:\PROGRAM FILES (X86)\WINDOWS KITS\10\INCLUDE\10.0.10240.0\UCRT\CORECRT_STDIO_CONFIG.H
D:\VS\VC\INCLUDE\CSTDLIB
C:\PROGRAM FILES (X86)\WINDOWS KITS\10\INCLUDE\10.0.10240.0\UCRT\STDLIB.H
C:\PROGRAM FILES (X86)\WINDOWS KITS\10\INCLUDE\10.0.10240.0\UCRT\CORECRT_MALLOC.H
C:\PROGRAM FILES (X86)\WINDOWS KITS\10\INCLUDE\10.0.10240.0\UCRT\CORECRT_SEARCH.H
C:\PROGRAM FILES (X86)\WINDOWS KITS\10\INCLUDE\10.0.10240.0\UCRT\STDDEF.H
C:\PROGRAM FILES (X86)\WINDOWS KITS\10\INCLUDE\10.0.10240.0\UCRT\CORECRT_WSTDLIB.H
D:\VS\VC\INCLUDE\LIMITS.H
D:\VS\VC\INCLUDE\CTIME
C:\PROGRAM FILES (X86)\WINDOWS KITS\10\INCLUDE\10.0.10240.0\UCRT\TIME.H
C:\PROGRAM FILES (X86)\WINDOWS KITS\10\INCLUDE\10.0.10240.0\UCRT\CORECRT_WTIME.H
D:\VS\VC\INCLUDE\ALGORITHM
D:\VS\VC\INCLUDE\XMEMORY
D:\VS\VC\INCLUDE\XMEMORY0
D:\VS\VC\INCLUDE\CSTDINT
D:\VS\VC\INCLUDE\STDINT.H
D:\VS\VC\INCLUDE\LIMITS
D:\VS\VC\INCLUDE\YMATH.H
D:\VS\VC\INCLUDE\CFLOAT
C:\PROGRAM FILES (X86)\WINDOWS KITS\10\INCLUDE\10.0.10240.0\UCRT\FLOAT.H
D:\VS\VC\INCLUDE\CLIMITS
D:\VS\VC\INCLUDE\CMATH
C:\PROGRAM FILES (X86)\WINDOWS KITS\10\INCLUDE\10.0.10240.0\UCRT\MATH.H
D:\VS\VC\INCLUDE\XTGMATH.H
D:\VS\VC\INCLUDE\XTR1COMMON
D:\VS\VC\INCLUDE\CWCHAR
C:\PROGRAM FILES (X86)\WINDOWS KITS\10\INCLUDE\10.0.10240.0\UCRT\WCHAR.H
C:\PROGRAM FILES (X86)\WINDOWS KITS\10\INCLUDE\10.0.10240.0\UCRT\CORECRT_MEMCPY_S.H
C:\PROGRAM FILES (X86)\WINDOWS KITS\10\INCLUDE\10.0.10240.0\UCRT\ERRNO.H
D:\VS\VC\INCLUDE\VCRUNTIME_STRING.H
C:\PROGRAM FILES (X86)\WINDOWS KITS\10\INCLUDE\10.0.10240.0\UCRT\CORECRT_WCONIO.H
C:\PROGRAM FILES (X86)\WINDOWS KITS\10\INCLUDE\10.0.10240.0\UCRT\CORECRT_WCTYPE.H
C:\PROGRAM FILES (X86)\WINDOWS KITS\10\INCLUDE\10.0.10240.0\UCRT\CORECRT_WDIRECT.H
C:\PROGRAM FILES (X86)\WINDOWS KITS\10\INCLUDE\10.0.10240.0\UCRT\CORECRT_WIO.H
C:\PROGRAM FILES (X86)\WINDOWS KITS\10\INCLUDE\10.0.10240.0\UCRT\CORECRT_SHARE.H
C:\PROGRAM FILES (X86)\WINDOWS KITS\10\INCLUDE\10.0.10240.0\UCRT\CORECRT_WPROCESS.H
C:\PROGRAM FILES (X86)\WINDOWS KITS\10\INCLUDE\10.0.10240.0\UCRT\CORECRT_WSTRING.H
C:\PROGRAM FILES (X86)\WINDOWS KITS\10\INCLUDE\10.0.10240.0\UCRT\SYS\STAT.H
C:\PROGRAM FILES (X86)\WINDOWS KITS\10\INCLUDE\10.0.10240.0\UCRT\SYS\TYPES.H
D:\VS\VC\INCLUDE\XSTDDEF
D:\VS\VC\INCLUDE\CSTDDEF
D:\VS\VC\INCLUDE\INITIALIZER_LIST
D:\VS\VC\INCLUDE\NEW
D:\VS\VC\INCLUDE\EXCEPTION
D:\VS\VC\INCLUDE\TYPE_TRAITS
C:\PROGRAM FILES (X86)\WINDOWS KITS\10\INCLUDE\10.0.10240.0\UCRT\MALLOC.H
D:\VS\VC\INCLUDE\VCRUNTIME_EXCEPTION.H
D:\VS\VC\INCLUDE\EH.H
C:\PROGRAM FILES (X86)\WINDOWS KITS\10\INCLUDE\10.0.10240.0\UCRT\CORECRT_TERMINATE.H
D:\VS\VC\INCLUDE\VCRUNTIME_NEW.H
D:\VS\VC\INCLUDE\XUTILITY
D:\VS\VC\INCLUDE\UTILITY
D:\VS\VC\INCLUDE\IOSFWD
D:\VS\VC\INCLUDE\CSTRING
C:\PROGRAM FILES (X86)\WINDOWS KITS\10\INCLUDE\10.0.10240.0\UCRT\STRING.H
C:\PROGRAM FILES (X86)\WINDOWS KITS\10\INCLUDE\10.0.10240.0\UCRT\CORECRT_MEMORY.H
C:\PROGRAM FILES (X86)\WINDOWS KITS\10\INCLUDE\10.0.10240.0\UCRT\CRTDBG.H
D:\VS\VC\INCLUDE\VCRUNTIME_NEW_DEBUG.H
D:\VS\VC\INCLUDE\XATOMIC0.H
D:\VS\VC\INCLUDE\INTRIN.H
D:\VS\VC\INCLUDE\SETJMP.H
D:\VS\VC\INCLUDE\IMMINTRIN.H
D:\VS\VC\INCLUDE\WMMINTRIN.H
D:\VS\VC\INCLUDE\NMMINTRIN.H
D:\VS\VC\INCLUDE\SMMINTRIN.H
D:\VS\VC\INCLUDE\TMMINTRIN.H
D:\VS\VC\INCLUDE\PMMINTRIN.H
D:\VS\VC\INCLUDE\EMMINTRIN.H
D:\VS\VC\INCLUDE\XMMINTRIN.H
D:\VS\VC\INCLUDE\MMINTRIN.H
D:\VS\VC\INCLUDE\AMMINTRIN.H
D:\VS\VC\INCLUDE\MM3DNOW.H
D:\VS\VC\INCLUDE\VECTOR
D:\VS\VC\INCLUDE\STDEXCEPT
D:\VS\VC\INCLUDE\XSTRING
D:\CMAKE\INCLUDES\GL\GLEW.H
C:\PROGRAM FILES (X86)\WINDOWS KITS\8.1\INCLUDE\UM\GL\GLU.H
C:\PROGRAM FILES (X86)\WINDOWS KITS\8.1\INCLUDE\SHARED\WINAPIFAMILY.H
C:\PROGRAM FILES (X86)\WINDOWS KITS\8.1\INCLUDE\UM\GL\GL.H
D:\CMAKE\INCLUDES\GLFW\GLFW3.H
D:\CMAKE\INCLUDES\GLM\GLM.HPP
D:\CMAKE\INCLUDES\GLM\DETAIL\_FIXES.HPP
D:\VS\VC\INCLUDE\CASSERT
C:\PROGRAM FILES (X86)\WINDOWS KITS\10\INCLUDE\10.0.10240.0\UCRT\ASSERT.H
D:\CMAKE\INCLUDES\GLM\FWD.HPP
D:\CMAKE\INCLUDES\GLM\DETAIL\TYPE_INT.HPP
D:\CMAKE\INCLUDES\GLM\DETAIL\SETUP.HPP
D:\CMAKE\INCLUDES\GLM\DETAIL\TYPE_FLOAT.HPP
D:\CMAKE\INCLUDES\GLM\DETAIL\TYPE_VEC.HPP
D:\CMAKE\INCLUDES\GLM\DETAIL\PRECISION.HPP
D:\CMAKE\INCLUDES\GLM\DETAIL\TYPE_MAT.HPP
D:\CMAKE\INCLUDES\GLM\VEC2.HPP
D:\CMAKE\INCLUDES\GLM\DETAIL\TYPE_VEC2.HPP
D:\CMAKE\INCLUDES\GLM\DETAIL\TYPE_VEC2.INL
D:\CMAKE\INCLUDES\GLM\VEC3.HPP
D:\CMAKE\INCLUDES\GLM\DETAIL\TYPE_VEC3.HPP
D:\CMAKE\INCLUDES\GLM\DETAIL\TYPE_VEC3.INL
D:\CMAKE\INCLUDES\GLM\VEC4.HPP
D:\CMAKE\INCLUDES\GLM\DETAIL\TYPE_VEC4.HPP
D:\CMAKE\INCLUDES\GLM\DETAIL\TYPE_VEC4.INL
D:\CMAKE\INCLUDES\GLM\MAT2X2.HPP
D:\CMAKE\INCLUDES\GLM\DETAIL\TYPE_MAT2X2.HPP
D:\CMAKE\INCLUDES\GLM\DETAIL\TYPE_MAT2X2.INL
D:\CMAKE\INCLUDES\GLM\MAT2X3.HPP
D:\CMAKE\INCLUDES\GLM\DETAIL\TYPE_MAT2X3.HPP
D:\CMAKE\INCLUDES\GLM\DETAIL\TYPE_MAT2X3.INL
D:\CMAKE\INCLUDES\GLM\MAT2X4.HPP
D:\CMAKE\INCLUDES\GLM\DETAIL\TYPE_MAT2X4.HPP
D:\CMAKE\INCLUDES\GLM\DETAIL\TYPE_MAT2X4.INL
D:\CMAKE\INCLUDES\GLM\MAT3X2.HPP
D:\CMAKE\INCLUDES\GLM\DETAIL\TYPE_MAT3X2.HPP
D:\CMAKE\INCLUDES\GLM\DETAIL\TYPE_MAT3X2.INL
D:\CMAKE\INCLUDES\GLM\MAT3X3.HPP
D:\CMAKE\INCLUDES\GLM\DETAIL\TYPE_MAT3X3.HPP
D:\CMAKE\INCLUDES\GLM\DETAIL\TYPE_MAT3X3.INL
D:\CMAKE\INCLUDES\GLM\MAT3X4.HPP
D:\CMAKE\INCLUDES\GLM\DETAIL\TYPE_MAT3X4.HPP
D:\CMAKE\INCLUDES\GLM\DETAIL\TYPE_MAT3X4.INL
D:\CMAKE\INCLUDES\GLM\MAT4X2.HPP
D:\CMAKE\INCLUDES\GLM\DETAIL\TYPE_MAT4X2.HPP
D:\CMAKE\INCLUDES\GLM\DETAIL\TYPE_MAT4X2.INL
D:\CMAKE\INCLUDES\GLM\MAT4X3.HPP
D:\CMAKE\INCLUDES\GLM\DETAIL\TYPE_MAT4X3.HPP
D:\CMAKE\INCLUDES\GLM\DETAIL\TYPE_MAT4X3.INL
D:\CMAKE\INCLUDES\GLM\MAT4X4.HPP
D:\CMAKE\INCLUDES\GLM\DETAIL\TYPE_MAT4X4.HPP
D:\CMAKE\INCLUDES\GLM\DETAIL\TYPE_MAT4X4.INL
D:\CMAKE\INCLUDES\GLM\TRIGONOMETRIC.HPP
D:\CMAKE\INCLUDES\GLM\DETAIL\FUNC_TRIGONOMETRIC.HPP
D:\CMAKE\INCLUDES\GLM\DETAIL\FUNC_TRIGONOMETRIC.INL
D:\CMAKE\INCLUDES\GLM\DETAIL\_VECTORIZE.HPP
D:\CMAKE\INCLUDES\GLM\DETAIL\TYPE_VEC1.HPP
D:\CMAKE\INCLUDES\GLM\DETAIL\TYPE_VEC1.INL
D:\CMAKE\INCLUDES\GLM\EXPONENTIAL.HPP
D:\CMAKE\INCLUDES\GLM\DETAIL\FUNC_EXPONENTIAL.HPP
D:\CMAKE\INCLUDES\GLM\DETAIL\FUNC_EXPONENTIAL.INL
D:\CMAKE\INCLUDES\GLM\DETAIL\FUNC_VECTOR_RELATIONAL.HPP
D:\CMAKE\INCLUDES\GLM\DETAIL\FUNC_VECTOR_RELATIONAL.INL
D:\CMAKE\INCLUDES\GLM\COMMON.HPP
D:\CMAKE\INCLUDES\GLM\DETAIL\FUNC_COMMON.HPP
D:\CMAKE\INCLUDES\GLM\DETAIL\FUNC_COMMON.INL
D:\CMAKE\INCLUDES\GLM\PACKING.HPP
D:\CMAKE\INCLUDES\GLM\DETAIL\FUNC_PACKING.HPP
D:\CMAKE\INCLUDES\GLM\DETAIL\FUNC_PACKING.INL
D:\CMAKE\INCLUDES\GLM\DETAIL\TYPE_HALF.HPP
D:\CMAKE\INCLUDES\GLM\DETAIL\TYPE_HALF.INL
D:\CMAKE\INCLUDES\GLM\GEOMETRIC.HPP
D:\CMAKE\INCLUDES\GLM\DETAIL\FUNC_GEOMETRIC.HPP
D:\CMAKE\INCLUDES\GLM\DETAIL\FUNC_GEOMETRIC.INL
D:\CMAKE\INCLUDES\GLM\MATRIX.HPP
D:\CMAKE\INCLUDES\GLM\DETAIL\FUNC_MATRIX.HPP
D:\CMAKE\INCLUDES\GLM\DETAIL\FUNC_MATRIX.INL
D:\CMAKE\INCLUDES\GLM\VECTOR_RELATIONAL.HPP
D:\CMAKE\INCLUDES\GLM\INTEGER.HPP
D:\CMAKE\INCLUDES\GLM\DETAIL\FUNC_INTEGER.HPP
D:\CMAKE\INCLUDES\GLM\DETAIL\FUNC_INTEGER.INL
D:\CMAKE\INCLUDES\GLM\GTC\MATRIX_TRANSFORM.HPP
D:\CMAKE\INCLUDES\GLM\GTC\CONSTANTS.HPP
D:\CMAKE\INCLUDES\GLM\GTC\CONSTANTS.INL
D:\CMAKE\INCLUDES\GLM\GTC\MATRIX_TRANSFORM.INL
D:\CMAKE\INCLUDES\GLM\GTC\TYPE_PTR.HPP
D:\CMAKE\INCLUDES\GLM\GTC\QUATERNION.HPP
D:\CMAKE\INCLUDES\GLM\GTC\QUATERNION.INL
D:\CMAKE\INCLUDES\GLM\GTC\TYPE_PTR.INL
D:\CMAKE\INCLUDES\STB_IMAGE.H
D:\VS\VC\INCLUDE\STDARG.H
E:\C++\图形学\CSPH\CSPH\MYGL.H
D:\VS\VC\INCLUDE\IOSTREAM
D:\VS\VC\INCLUDE\ISTREAM
D:\VS\VC\INCLUDE\OSTREAM
D:\VS\VC\INCLUDE\IOS
D:\VS\VC\INCLUDE\XLOCNUM
D:\VS\VC\INCLUDE\STREAMBUF
D:\VS\VC\INCLUDE\XIOSBASE
D:\VS\VC\INCLUDE\XLOCALE
D:\VS\VC\INCLUDE\TYPEINFO
D:\VS\VC\INCLUDE\VCRUNTIME_TYPEINFO.H
D:\VS\VC\INCLUDE\XLOCINFO
D:\VS\VC\INCLUDE\XLOCINFO.H
C:\PROGRAM FILES (X86)\WINDOWS KITS\10\INCLUDE\10.0.10240.0\UCRT\CTYPE.H
C:\PROGRAM FILES (X86)\WINDOWS KITS\10\INCLUDE\10.0.10240.0\UCRT\LOCALE.H
D:\VS\VC\INCLUDE\XFACET
D:\VS\VC\INCLUDE\SYSTEM_ERROR
D:\VS\VC\INCLUDE\CERRNO
C:\PROGRAM FILES (X86)\WINDOWS KITS\10\INCLUDE\10.0.10240.0\UCRT\SHARE.H
D:\VS\VC\INCLUDE\FSTREAM
D:\VS\VC\INCLUDE\SSTREAM
D:\VS\VC\INCLUDE\STRING
E:\C++\图形学\CSPH\CSPH\MC.CPP
